125/Lab 2 - Full Adder/Lab 2 - Full Adder.sim/sim_1/behav/xsim/simulate.log
Time resolution is 1 ps
Time = 0 | A = 000 (0), B = 000 (0), Cin = 0, S = 00 (0), Cout = 0
Time = 10 | A = 000 (0), B = 001 (1), Cin = 0, S = 01 (1), Cout = 0
Time = 20 | A = 000 (0), B = 010 (2), Cin = 0, S = 10 (2), Cout = 0
Time = 30 | A = 000 (0), B = 011 (3), Cin = 0, S = 11 (3), Cout = 0
Time = 40 | A = 001 (1), B = 000 (0), Cin = 0, S = 01 (1), Cout = 0
Time = 50 | A = 001 (1), B = 001 (1), Cin = 0, S = 10 (2), Cout = 0
Time = 60 | A = 001 (1), B = 010 (2), Cin = 0, S = 11 (3), Cout = 0
Time = 70 | A = 001 (1), B = 011 (3), Cin = 0, S = 00 (0), Cout = 1
Time = 80 | A = 010 (2), B = 000 (0), Cin = 0, S = 10 (2), Cout = 0
Time = 90 | A = 010 (2), B = 001 (1), Cin = 0, S = 11 (3), Cout = 0
Time = 100 | A = 010 (2), B = 010 (2), Cin = 0, S = 00 (0), Cout = 1
Time = 110 | A = 010 (2), B = 011 (3), Cin = 0, S = 01 (1), Cout = 1
Time = 120 | A = 011 (3), B = 000 (0), Cin = 0, S = 11 (3), Cout = 0
Time = 130 | A = 011 (3), B = 001 (1), Cin = 0, S = 00 (0), Cout = 1
Time = 140 | A = 011 (3), B = 010 (2), Cin = 0, S = 01 (1), Cout = 1
Time = 150 | A = 011 (3), B = 011 (3), Cin = 0, S = 10 (2), Cout = 1
$finish called at time : 160 ns : File "/home/alazca/Development/125/Lab 2 - Full Adder/Lab 2 - Full Adder.srcs/sim_1/new/adder_tb.v" Line 56
